{
  "idIntervention" : "125945Tr8",
  "Date": "06/06/06",
  "Société": "CHU Bordeau",
  "Demandeur": {
     "first": "Mr",
     "last": "Demandeur"
  },
  "Email": "Mzbeul@gmail.com",
  "Adresse": "123 Rue de Zbeul",
  "numTel": "+33698989878",
  "Intevenant": {
     "first": "Zbeul",
     "last": "Land"
  },
  "Equipements": {
    "Type": "Ordi",
    "Marque": "Apple",
    "Nature": "Overrated"
  },
  "Intervention": {
    "Objet": "Devil",
    "Type": "Starfoullah"
  },
  "Rapport": "C'était le Zbeul",
  "Signé": true
}
